{
  "id": "/environments/${env}/${app}",
  "cmd": "curl -s -k -H \"X-JFrog-Art-Api:${deploy_token}\" ${artifact_url} -o app.jar && java ${jvm_args} -jar app.jar ${program_args}",
  "cpus": ${runtime["cpu"]},
  "mem": ${runtime["memory"]},
  "disk": 0,
  "instances": ${runtime["instances"]},
  "constraints": ${constraints},
  "env": {
    "ENV": "${env_type}",
    "CLUSTER_NAME" : "${env}",
    "CLUSTER_ID" : "${env.replace("-","_")}"
  },
  "container": null,
  "healthChecks": [
    {
      "path": "/health",
      "protocol": "HTTP",
      "portIndex": ${runtime["health_port_index"]},
      "gracePeriodSeconds": 60,
      "intervalSeconds": 10,
      "timeoutSeconds": 5,
      "maxConsecutiveFailures": 3,
      "ignoreHttp1xx": false
    }
  ],
  "labels": {
    "overrideTaskName": "${task_name}",
    "version" : "${version}"
  },
  "unreachableStrategy": {
     "inactiveAfterSeconds": 5,
     "expungeAfterSeconds": 10
  },
  "portDefinitions": [
    {
      "port": 0,
      "protocol": "tcp",
      "name": "${env}",
      "labels": {}
    },
    {
      "port": 0,
      "protocol": "tcp",
      "name": "${env}-jmx",
      "labels": {}
    },
    {
      "port": 0,
      "protocol": "tcp",
      "name": "${env}-mgmt",
      "labels": {}
    }
  ]
}
